{
  "name": "Christian Enkrich",
  "start_times": {
    "1": "2020-12-01 06:00:00",
    "2": "2020-12-02 06:00:00",
    "3": "2020-12-03 06:00:00",
    "4": "2020-12-05 15:27:00",
    "5": "2020-12-05 22:25:00",
    "6": "2020-12-06 06:30:00",
    "7": "2020-12-12 14:00:00",
    "8": "2020-12-12 22:40:00",
    "9": "2020-12-13 14:35:00",
    "10": "2020-12-13 22:20:00",
    "11": "2020-12-14 21:55:00",
    "12": "2020-12-15 11:25:00",
    "13": "2020-12-15 21:07:00",
    "14": "2020-12-19 13:55:00",
    "15": "2020-12-19 21:47:00",
    "16": "2020-12-19 23:35:00",
    "17": "2020-12-20 13:34:00",
    "18": "2020-12-20 20:18:00",
    "19": "2020-12-20 21:50:00",
    "20": "2020-12-22 20:59:00",
    "21": "2020-12-23 11:40:00",
    "22": "2020-12-23 20:14:00",
    "23": "2020-12-25 14:24:00",
    "24": "2020-12-26 13:34:00",
    "25": "2020-12-26 14:29:00"
  }
}